runs/lru/dump.vcd
$date
	Sat May  2 14:00:24 2026
$end
$version
	Icarus Verilog
$end
$timescale
	1ps
$end
$scope module pseudo_lru_4way_tb $end
$var wire 2 ! victim_way [1:0] $end
$var reg 1 " access_en $end
$var reg 2 # accessed_way [1:0] $end
$var reg 1 $ clk $end
$var reg 1 % rst_n $end
$scope module u_pseudo_lru_4way $end
$var wire 1 " access_en $end
$var wire 2 & accessed_way [1:0] $end
$var wire 1 $ clk $end
$var wire 1 % rst_n $end
$var reg 3 ' tree [2:0] $end
$var reg 2 ( victim_way [1:0] $end
$upscope $end
$upscope $end
$enddefinitions $end
$comment Show the parameter values. $end
$dumpall
$end
#0
$dumpvars
b0 (
b0 '
b0 &
0%
0$
b0 #
0"
b0 !
$end
#5000
1$
#10000
0$
1%
#15000
1$
#20000
0$
#25000
1$
#30000
0$
#35000
1$
#40000
0$
#45000
b10 !
b10 (
b11 '
1$
1"
#50000
0$
#55000
1$
#60000
0$
#65000
b1 #
b1 &
1$
0"
#70000
0$
#75000
1$
#80000
0$
#85000
b1 '
1$
1"
#90000
0$
#95000
1$
#100000
0$
#105000
b10 #
b10 &
1$
0"
#110000
0$
#115000
1$
#120000
0$
#125000
b0 !
b0 (
b100 '
1$
1"
#130000
0$
#135000
1$
#140000
0$
#145000
b11 #
b11 &
1$
0"
#150000
0$
#155000
1$
#160000
0$
#165000
b0 '
1$
1"
#170000
0$
#175000
1$
#180000
0$
#185000
1$
0"
