runs/wallace_tree/dump.vcd
$date
	Sat May  2 23:00:14 2026
$end
$version
	Icarus Verilog
$end
$timescale
	1ps
$end
$scope module tb_wallace_reduction $end
$var wire 8 ! sum [7:0] $end
$var wire 8 " carry [7:0] $end
$var reg 8 # expected_carry [7:0] $end
$var reg 8 $ expected_sum [7:0] $end
$var reg 8 % p0 [7:0] $end
$var reg 8 & p1 [7:0] $end
$var reg 8 ' p2 [7:0] $end
$var integer 32 ( errors [31:0] $end
$var integer 32 ) i [31:0] $end
$var integer 32 * j [31:0] $end
$scope module dut $end
$var wire 8 + p0 [7:0] $end
$var wire 8 , p1 [7:0] $end
$var wire 8 - p2 [7:0] $end
$var wire 8 . sum [7:0] $end
$var wire 8 / carry [7:0] $end
$scope begin csa[0] $end
$var parameter 2 0 i $end
$upscope $end
$scope begin csa[1] $end
$var parameter 2 1 i $end
$upscope $end
$scope begin csa[2] $end
$var parameter 3 2 i $end
$upscope $end
$scope begin csa[3] $end
$var parameter 3 3 i $end
$upscope $end
$scope begin csa[4] $end
$var parameter 4 4 i $end
$upscope $end
$scope begin csa[5] $end
$var parameter 4 5 i $end
$upscope $end
$scope begin csa[6] $end
$var parameter 4 6 i $end
$upscope $end
$scope begin csa[7] $end
$var parameter 4 7 i $end
$upscope $end
$upscope $end
$scope task check_output $end
$upscope $end
$upscope $end
$enddefinitions $end
$comment Show the parameter values. $end
$dumpall
b111 7
b110 6
b101 5
b100 4
b11 3
b10 2
b1 1
b0 0
$end
#0
$dumpvars
b0 /
b0 .
b0 -
b0 ,
b0 +
bx *
bx )
b0 (
b0 '
b0 &
b0 %
bx $
bx #
b0 "
b0 !
$end
#11000
b0 #
b0 $
b1000 *
#21000
b11111111 "
b11111111 /
b11111111 !
b11111111 .
b11111111 '
b11111111 -
b11111111 &
b11111111 ,
b11111111 %
b11111111 +
#22000
b11111111 #
b11111111 $
b1000 *
#32000
b0 !
b0 .
b1010101 &
b1010101 ,
b10101010 %
b10101010 +
#33000
b0 $
b1000 *
#43000
b0 "
b0 /
b111 !
b111 .
b100 '
b100 -
b10 &
b10 ,
b1 %
b1 +
#44000
b0 #
b111 $
b1000 *
#54000
b1011010 "
b1011010 /
b10100101 !
b10100101 .
b1011010 '
b1011010 -
b11000011 &
b11000011 ,
b111100 %
b111100 +
#55000
b0 )
b1011010 #
b10100101 $
b1000 *
#65000
b0 "
b0 /
b11111111 !
b11111111 .
b0 '
b0 -
b11111111 &
b11111111 ,
b0 %
b0 +
#66000
b1 )
b0 #
b11111111 $
b1000 *
#76000
b10000 "
b10000 /
b11101111 !
b11101111 .
b10000 '
b10000 -
b11111110 &
b11111110 ,
b1 %
b1 +
#77000
b10 )
b10000 #
b11101111 $
b1000 *
#87000
b100000 "
b100000 /
b11011111 !
b11011111 .
b100000 '
b100000 -
b11111101 &
b11111101 ,
b10 %
b10 +
#88000
b11 )
b100000 #
b11011111 $
b1000 *
#98000
b110000 "
b110000 /
b11001111 !
b11001111 .
b110000 '
b110000 -
b11111100 &
b11111100 ,
b11 %
b11 +
#99000
b100 )
b110000 #
b11001111 $
b1000 *
#109000
b1000000 "
b1000000 /
b10111111 !
b10111111 .
b1000000 '
b1000000 -
b11111011 &
b11111011 ,
b100 %
b100 +
#110000
b101 )
b1000000 #
b10111111 $
b1000 *
#120000
b1010000 "
b1010000 /
b10101111 !
b10101111 .
b1010000 '
b1010000 -
b11111010 &
b11111010 ,
b101 %
b101 +
#121000
b110 )
b1010000 #
b10101111 $
b1000 *
#131000
b1100000 "
b1100000 /
b10011111 !
b10011111 .
b1100000 '
b1100000 -
b11111001 &
b11111001 ,
b110 %
b110 +
#132000
b111 )
b1100000 #
b10011111 $
b1000 *
#142000
b1110000 "
b1110000 /
b10001111 !
b10001111 .
b1110000 '
b1110000 -
b11111000 &
b11111000 ,
b111 %
b111 +
#143000
b1000 )
b1110000 #
b10001111 $
b1000 *
#153000
b10000000 "
b10000000 /
b1111111 !
b1111111 .
b10000000 '
b10000000 -
b11110111 &
b11110111 ,
b1000 %
b1000 +
#154000
b1001 )
b10000000 #
b1111111 $
b1000 *
#164000
b10010000 "
b10010000 /
b1101111 !
b1101111 .
b10010000 '
b10010000 -
b11110110 &
b11110110 ,
b1001 %
b1001 +
#165000
b1010 )
b10010000 #
b1101111 $
b1000 *
#175000
b10100000 "
b10100000 /
b1011111 !
b1011111 .
b10100000 '
b10100000 -
b11110101 &
b11110101 ,
b1010 %
b1010 +
#176000
b1011 )
b10100000 #
b1011111 $
b1000 *
#186000
b10110000 "
b10110000 /
b1001111 !
b1001111 .
b10110000 '
b10110000 -
b11110100 &
b11110100 ,
b1011 %
b1011 +
#187000
b1100 )
b10110000 #
b1001111 $
b1000 *
#197000
b11000000 "
b11000000 /
b111111 !
b111111 .
b11000000 '
b11000000 -
b11110011 &
b11110011 ,
b1100 %
b1100 +
#198000
b1101 )
b11000000 #
b111111 $
b1000 *
#208000
b11010000 "
b11010000 /
b101111 !
b101111 .
b11010000 '
b11010000 -
b11110010 &
b11110010 ,
b1101 %
b1101 +
#209000
b1110 )
b11010000 #
b101111 $
b1000 *
#219000
b11100000 "
b11100000 /
b11111 !
b11111 .
b11100000 '
b11100000 -
b11110001 &
b11110001 ,
b1110 %
b1110 +
#220000
b1111 )
b11100000 #
b11111 $
b1000 *
#230000
b11110000 "
b11110000 /
b1111 !
b1111 .
b11110000 '
b11110000 -
b11110000 &
b11110000 ,
b1111 %
b1111 +
#231000
b10000 )
b11110000 #
b1111 $
b1000 *
#241000
b1 "
b1 /
b11111110 !
b11111110 .
b1 '
b1 -
b11101111 &
b11101111 ,
b10000 %
b10000 +
#242000
b10001 )
b1 #
b11111110 $
b1000 *
#252000
b10001 "
b10001 /
b11101110 !
b11101110 .
b10001 '
b10001 -
b11101110 &
b11101110 ,
b10001 %
b10001 +
#253000
b10010 )
b10001 #
b11101110 $
b1000 *
#263000
b100001 "
b100001 /
b11011110 !
b11011110 .
b100001 '
b100001 -
b11101101 &
b11101101 ,
b10010 %
b10010 +
#264000
b10011 )
b100001 #
b11011110 $
b1000 *
#274000
b110001 "
b110001 /
b11001110 !
b11001110 .
b110001 '
b110001 -
b11101100 &
b11101100 ,
b10011 %
b10011 +
#275000
b10100 )
b110001 #
b11001110 $
b1000 *
#285000
b1000001 "
b1000001 /
b10111110 !
b10111110 .
b1000001 '
b1000001 -
b11101011 &
b11101011 ,
b10100 %
b10100 +
#286000
b10101 )
b1000001 #
b10111110 $
b1000 *
#296000
b1010001 "
b1010001 /
b10101110 !
b10101110 .
b1010001 '
b1010001 -
b11101010 &
b11101010 ,
b10101 %
b10101 +
#297000
b10110 )
b1010001 #
b10101110 $
b1000 *
#307000
b1100001 "
b1100001 /
b10011110 !
b10011110 .
b1100001 '
b1100001 -
b11101001 &
b11101001 ,
b10110 %
b10110 +
#308000
b10111 )
b1100001 #
b10011110 $
b1000 *
#318000
b1110001 "
b1110001 /
b10001110 !
b10001110 .
b1110001 '
b1110001 -
b11101000 &
b11101000 ,
b10111 %
b10111 +
#319000
b11000 )
b1110001 #
b10001110 $
b1000 *
#329000
b10000001 "
b10000001 /
b1111110 !
b1111110 .
b10000001 '
b10000001 -
b11100111 &
b11100111 ,
b11000 %
b11000 +
#330000
b11001 )
b10000001 #
b1111110 $
b1000 *
#340000
b10010001 "
b10010001 /
b1101110 !
b1101110 .
b10010001 '
b10010001 -
b11100110 &
b11100110 ,
b11001 %
b11001 +
#341000
b11010 )
b10010001 #
b1101110 $
b1000 *
#351000
b10100001 "
b10100001 /
b1011110 !
b1011110 .
b10100001 '
b10100001 -
b11100101 &
b11100101 ,
b11010 %
b11010 +
#352000
b11011 )
b10100001 #
b1011110 $
b1000 *
#362000
b10110001 "
b10110001 /
b1001110 !
b1001110 .
b10110001 '
b10110001 -
b11100100 &
b11100100 ,
b11011 %
b11011 +
#363000
b11100 )
b10110001 #
b1001110 $
b1000 *
#373000
b11000001 "
b11000001 /
b111110 !
b111110 .
b11000001 '
b11000001 -
b11100011 &
b11100011 ,
b11100 %
b11100 +
#374000
b11101 )
b11000001 #
b111110 $
b1000 *
#384000
b11010001 "
b11010001 /
b101110 !
b101110 .
b11010001 '
b11010001 -
b11100010 &
b11100010 ,
b11101 %
b11101 +
#385000
b11110 )
b11010001 #
b101110 $
b1000 *
#395000
b11100001 "
b11100001 /
b11110 !
b11110 .
b11100001 '
b11100001 -
b11100001 &
b11100001 ,
b11110 %
b11110 +
#396000
b11111 )
b11100001 #
b11110 $
b1000 *
#406000
b11110001 "
b11110001 /
b1110 !
b1110 .
b11110001 '
b11110001 -
b11100000 &
b11100000 ,
b11111 %
b11111 +
#407000
b100000 )
b11110001 #
b1110 $
b1000 *
#417000
b10 "
b10 /
b11111101 !
b11111101 .
b10 '
b10 -
b11011111 &
b11011111 ,
b100000 %
b100000 +
#418000
b100001 )
b10 #
b11111101 $
b1000 *
#428000
b10010 "
b10010 /
b11101101 !
b11101101 .
b10010 '
b10010 -
b11011110 &
b11011110 ,
b100001 %
b100001 +
#429000
b100010 )
b10010 #
b11101101 $
b1000 *
#439000
b100010 "
b100010 /
b11011101 !
b11011101 .
b100010 '
b100010 -
b11011101 &
b11011101 ,
b100010 %
b100010 +
#440000
b100011 )
b100010 #
b11011101 $
b1000 *
#450000
b110010 "
b110010 /
b11001101 !
b11001101 .
b110010 '
b110010 -
b11011100 &
b11011100 ,
b100011 %
b100011 +
#451000
b100100 )
b110010 #
b11001101 $
b1000 *
#461000
b1000010 "
b1000010 /
b10111101 !
b10111101 .
b1000010 '
b1000010 -
b11011011 &
b11011011 ,
b100100 %
b100100 +
#462000
b100101 )
b1000010 #
b10111101 $
b1000 *
#472000
b1010010 "
b1010010 /
b10101101 !
b10101101 .
b1010010 '
b1010010 -
b11011010 &
b11011010 ,
b100101 %
b100101 +
#473000
b100110 )
b1010010 #
b10101101 $
b1000 *
#483000
b1100010 "
b1100010 /
b10011101 !
b10011101 .
b1100010 '
b1100010 -
b11011001 &
b11011001 ,
b100110 %
b100110 +
#484000
b100111 )
b1100010 #
b10011101 $
b1000 *
#494000
b1110010 "
b1110010 /
b10001101 !
b10001101 .
b1110010 '
b1110010 -
b11011000 &
b11011000 ,
b100111 %
b100111 +
#495000
b101000 )
b1110010 #
b10001101 $
b1000 *
#505000
b10000010 "
b10000010 /
b1111101 !
b1111101 .
b10000010 '
b10000010 -
b11010111 &
b11010111 ,
b101000 %
b101000 +
#506000
b101001 )
b10000010 #
b1111101 $
b1000 *
#516000
b10010010 "
b10010010 /
b1101101 !
b1101101 .
b10010010 '
b10010010 -
b11010110 &
b11010110 ,
b101001 %
b101001 +
#517000
b101010 )
b10010010 #
b1101101 $
b1000 *
#527000
b10100010 "
b10100010 /
b1011101 !
b1011101 .
b10100010 '
b10100010 -
b11010101 &
b11010101 ,
b101010 %
b101010 +
#528000
b101011 )
b10100010 #
b1011101 $
b1000 *
#538000
b10110010 "
b10110010 /
b1001101 !
b1001101 .
b10110010 '
b10110010 -
b11010100 &
b11010100 ,
b101011 %
b101011 +
#539000
b101100 )
b10110010 #
b1001101 $
b1000 *
#549000
b11000010 "
b11000010 /
b111101 !
b111101 .
b11000010 '
b11000010 -
b11010011 &
b11010011 ,
b101100 %
b101100 +
#550000
b101101 )
b11000010 #
b111101 $
b1000 *
#560000
b11010010 "
b11010010 /
b101101 !
b101101 .
b11010010 '
b11010010 -
b11010010 &
b11010010 ,
b101101 %
b101101 +
#561000
b101110 )
b11010010 #
b101101 $
b1000 *
#571000
b11100010 "
b11100010 /
b11101 !
b11101 .
b11100010 '
b11100010 -
b11010001 &
b11010001 ,
b101110 %
b101110 +
#572000
b101111 )
b11100010 #
b11101 $
b1000 *
#582000
b11110010 "
b11110010 /
b1101 !
b1101 .
b11110010 '
b11110010 -
b11010000 &
b11010000 ,
b101111 %
b101111 +
#583000
b110000 )
b11110010 #
b1101 $
b1000 *
#593000
b11 "
b11 /
b11111100 !
b11111100 .
b11 '
b11 -
b11001111 &
b11001111 ,
b110000 %
b110000 +
#594000
b110001 )
b11 #
b11111100 $
b1000 *
#604000
b10011 "
b10011 /
b11101100 !
b11101100 .
b10011 '
b10011 -
b11001110 &
b11001110 ,
b110001 %
b110001 +
#605000
b110010 )
b10011 #
b11101100 $
b1000 *
#615000
b100011 "
b100011 /
b11011100 !
b11011100 .
b100011 '
b100011 -
b11001101 &
b11001101 ,
b110010 %
b110010 +
#616000
b110011 )
b100011 #
b11011100 $
b1000 *
#626000
b110011 "
b110011 /
b11001100 !
b11001100 .
b110011 '
b110011 -
b11001100 &
b11001100 ,
b110011 %
b110011 +
#627000
b110100 )
b110011 #
b11001100 $
b1000 *
#637000
b1000011 "
b1000011 /
b10111100 !
b10111100 .
b1000011 '
b1000011 -
b11001011 &
b11001011 ,
b110100 %
b110100 +
#638000
b110101 )
b1000011 #
b10111100 $
b1000 *
#648000
b1010011 "
b1010011 /
b10101100 !
b10101100 .
b1010011 '
b1010011 -
b11001010 &
b11001010 ,
b110101 %
b110101 +
#649000
b110110 )
b1010011 #
b10101100 $
b1000 *
#659000
b1100011 "
b1100011 /
b10011100 !
b10011100 .
b1100011 '
b1100011 -
b11001001 &
b11001001 ,
b110110 %
b110110 +
#660000
b110111 )
b1100011 #
b10011100 $
b1000 *
#670000
b1110011 "
b1110011 /
b10001100 !
b10001100 .
b1110011 '
b1110011 -
b11001000 &
b11001000 ,
b110111 %
b110111 +
#671000
b111000 )
b1110011 #
b10001100 $
b1000 *
#681000
b10000011 "
b10000011 /
b1111100 !
b1111100 .
b10000011 '
b10000011 -
b11000111 &
b11000111 ,
b111000 %
b111000 +
#682000
b111001 )
b10000011 #
b1111100 $
b1000 *
#692000
b10010011 "
b10010011 /
b1101100 !
b1101100 .
b10010011 '
b10010011 -
b11000110 &
b11000110 ,
b111001 %
b111001 +
#693000
b111010 )
b10010011 #
b1101100 $
b1000 *
#703000
b10100011 "
b10100011 /
b1011100 !
b1011100 .
b10100011 '
b10100011 -
b11000101 &
b11000101 ,
b111010 %
b111010 +
#704000
b111011 )
b10100011 #
b1011100 $
b1000 *
#714000
b10110011 "
b10110011 /
b1001100 !
b1001100 .
b10110011 '
b10110011 -
b11000100 &
b11000100 ,
b111011 %
b111011 +
#715000
b111100 )
b10110011 #
b1001100 $
b1000 *
#725000
b11000011 "
b11000011 /
b111100 !
b111100 .
b11000011 '
b11000011 -
b11000011 &
b11000011 ,
b111100 %
b111100 +
#726000
b111101 )
b11000011 #
b111100 $
b1000 *
#736000
b11010011 "
b11010011 /
b101100 !
b101100 .
b11010011 '
b11010011 -
b11000010 &
b11000010 ,
b111101 %
b111101 +
#737000
b111110 )
b11010011 #
b101100 $
b1000 *
#747000
b11100011 "
b11100011 /
b11100 !
b11100 .
b11100011 '
b11100011 -
b11000001 &
b11000001 ,
b111110 %
b111110 +
#748000
b111111 )
b11100011 #
b11100 $
b1000 *
#758000
b11110011 "
b11110011 /
b1100 !
b1100 .
b11110011 '
b11110011 -
b11000000 &
b11000000 ,
b111111 %
b111111 +
#759000
b1000000 )
b11110011 #
b1100 $
b1000 *
#769000
b100 "
b100 /
b11111011 !
b11111011 .
b100 '
b100 -
b10111111 &
b10111111 ,
b1000000 %
b1000000 +
#770000
b1000001 )
b100 #
b11111011 $
b1000 *
#780000
b10100 "
b10100 /
b11101011 !
b11101011 .
b10100 '
b10100 -
b10111110 &
b10111110 ,
b1000001 %
b1000001 +
#781000
b1000010 )
b10100 #
b11101011 $
b1000 *
#791000
b100100 "
b100100 /
b11011011 !
b11011011 .
b100100 '
b100100 -
b10111101 &
b10111101 ,
b1000010 %
b1000010 +
#792000
b1000011 )
b100100 #
b11011011 $
b1000 *
#802000
b110100 "
b110100 /
b11001011 !
b11001011 .
b110100 '
b110100 -
b10111100 &
b10111100 ,
b1000011 %
b1000011 +
#803000
b1000100 )
b110100 #
b11001011 $
b1000 *
#813000
b1000100 "
b1000100 /
b10111011 !
b10111011 .
b1000100 '
b1000100 -
b10111011 &
b10111011 ,
b1000100 %
b1000100 +
#814000
b1000101 )
b1000100 #
b10111011 $
b1000 *
#824000
b1010100 "
b1010100 /
b10101011 !
b10101011 .
b1010100 '
b1010100 -
b10111010 &
b10111010 ,
b1000101 %
b1000101 +
#825000
b1000110 )
b1010100 #
b10101011 $
b1000 *
#835000
b1100100 "
b1100100 /
b10011011 !
b10011011 .
b1100100 '
b1100100 -
b10111001 &
b10111001 ,
b1000110 %
b1000110 +
#836000
b1000111 )
b1100100 #
b10011011 $
b1000 *
#846000
b1110100 "
b1110100 /
b10001011 !
b10001011 .
b1110100 '
b1110100 -
b10111000 &
b10111000 ,
b1000111 %
b1000111 +
#847000
b1001000 )
b1110100 #
b10001011 $
b1000 *
#857000
b10000100 "
b10000100 /
b1111011 !
b1111011 .
b10000100 '
b10000100 -
b10110111 &
b10110111 ,
b1001000 %
b1001000 +
#858000
b1001001 )
b10000100 #
b1111011 $
b1000 *
#868000
b10010100 "
b10010100 /
b1101011 !
b1101011 .
b10010100 '
b10010100 -
b10110110 &
b10110110 ,
b1001001 %
b1001001 +
#869000
b1001010 )
b10010100 #
b1101011 $
b1000 *
#879000
b10100100 "
b10100100 /
b1011011 !
b1011011 .
b10100100 '
b10100100 -
b10110101 &
b10110101 ,
b1001010 %
b1001010 +
#880000
b1001011 )
b10100100 #
b1011011 $
b1000 *
#890000
b10110100 "
b10110100 /
b1001011 !
b1001011 .
b10110100 '
b10110100 -
b10110100 &
b10110100 ,
b1001011 %
b1001011 +
#891000
b1001100 )
b10110100 #
b1001011 $
b1000 *
#901000
b11000100 "
b11000100 /
b111011 !
b111011 .
b11000100 '
b11000100 -
b10110011 &
b10110011 ,
b1001100 %
b1001100 +
#902000
b1001101 )
b11000100 #
b111011 $
b1000 *
#912000
b11010100 "
b11010100 /
b101011 !
b101011 .
b11010100 '
b11010100 -
b10110010 &
b10110010 ,
b1001101 %
b1001101 +
#913000
b1001110 )
b11010100 #
b101011 $
b1000 *
#923000
b11100100 "
b11100100 /
b11011 !
b11011 .
b11100100 '
b11100100 -
b10110001 &
b10110001 ,
b1001110 %
b1001110 +
#924000
b1001111 )
b11100100 #
b11011 $
b1000 *
#934000
b11110100 "
b11110100 /
b1011 !
b1011 .
b11110100 '
b11110100 -
b10110000 &
b10110000 ,
b1001111 %
b1001111 +
#935000
b1010000 )
b11110100 #
b1011 $
b1000 *
#945000
b101 "
b101 /
b11111010 !
b11111010 .
b101 '
b101 -
b10101111 &
b10101111 ,
b1010000 %
b1010000 +
#946000
b1010001 )
b101 #
b11111010 $
b1000 *
#956000
b10101 "
b10101 /
b11101010 !
b11101010 .
b10101 '
b10101 -
b10101110 &
b10101110 ,
b1010001 %
b1010001 +
#957000
b1010010 )
b10101 #
b11101010 $
b1000 *
#967000
b100101 "
b100101 /
b11011010 !
b11011010 .
b100101 '
b100101 -
b10101101 &
b10101101 ,
b1010010 %
b1010010 +
#968000
b1010011 )
b100101 #
b11011010 $
b1000 *
#978000
b110101 "
b110101 /
b11001010 !
b11001010 .
b110101 '
b110101 -
b10101100 &
b10101100 ,
b1010011 %
b1010011 +
#979000
b1010100 )
b110101 #
b11001010 $
b1000 *
#989000
b1000101 "
b1000101 /
b10111010 !
b10111010 .
b1000101 '
b1000101 -
b10101011 &
b10101011 ,
b1010100 %
b1010100 +
#990000
b1010101 )
b1000101 #
b10111010 $
b1000 *
#1000000
b1010101 "
b1010101 /
b10101010 !
b10101010 .
b1010101 '
b1010101 -
b10101010 &
b10101010 ,
b1010101 %
b1010101 +
#1001000
b1010110 )
b1010101 #
b10101010 $
b1000 *
#1011000
b1100101 "
b1100101 /
b10011010 !
b10011010 .
b1100101 '
b1100101 -
b10101001 &
b10101001 ,
b1010110 %
b1010110 +
#1012000
b1010111 )
b1100101 #
b10011010 $
b1000 *
#1022000
b1110101 "
b1110101 /
b10001010 !
b10001010 .
b1110101 '
b1110101 -
b10101000 &
b10101000 ,
b1010111 %
b1010111 +
#1023000
b1011000 )
b1110101 #
b10001010 $
b1000 *
#1033000
b10000101 "
b10000101 /
b1111010 !
b1111010 .
b10000101 '
b10000101 -
b10100111 &
b10100111 ,
b1011000 %
b1011000 +
#1034000
b1011001 )
b10000101 #
b1111010 $
b1000 *
#1044000
b10010101 "
b10010101 /
b1101010 !
b1101010 .
b10010101 '
b10010101 -
b10100110 &
b10100110 ,
b1011001 %
b1011001 +
#1045000
b1011010 )
b10010101 #
b1101010 $
b1000 *
#1055000
b10100101 "
b10100101 /
b1011010 !
b1011010 .
b10100101 '
b10100101 -
b10100101 &
b10100101 ,
b1011010 %
b1011010 +
#1056000
b1011011 )
b10100101 #
b1011010 $
b1000 *
#1066000
b10110101 "
b10110101 /
b1001010 !
b1001010 .
b10110101 '
b10110101 -
b10100100 &
b10100100 ,
b1011011 %
b1011011 +
#1067000
b1011100 )
b10110101 #
b1001010 $
b1000 *
#1077000
b11000101 "
b11000101 /
b111010 !
b111010 .
b11000101 '
b11000101 -
b10100011 &
b10100011 ,
b1011100 %
b1011100 +
#1078000
b1011101 )
b11000101 #
b111010 $
b1000 *
#1088000
b11010101 "
b11010101 /
b101010 !
b101010 .
b11010101 '
b11010101 -
b10100010 &
b10100010 ,
b1011101 %
b1011101 +
#1089000
b1011110 )
b11010101 #
b101010 $
b1000 *
#1099000
b11100101 "
b11100101 /
b11010 !
b11010 .
b11100101 '
b11100101 -
b10100001 &
b10100001 ,
b1011110 %
b1011110 +
#1100000
b1011111 )
b11100101 #
b11010 $
b1000 *
#1110000
b11110101 "
b11110101 /
b1010 !
b1010 .
b11110101 '
b11110101 -
b10100000 &
b10100000 ,
b1011111 %
b1011111 +
#1111000
b1100000 )
b11110101 #
b1010 $
b1000 *
#1121000
b110 "
b110 /
b11111001 !
b11111001 .
b110 '
b110 -
b10011111 &
b10011111 ,
b1100000 %
b1100000 +
#1122000
b1100001 )
b110 #
b11111001 $
b1000 *
#1132000
b10110 "
b10110 /
b11101001 !
b11101001 .
b10110 '
b10110 -
b10011110 &
b10011110 ,
b1100001 %
b1100001 +
#1133000
b1100010 )
b10110 #
b11101001 $
b1000 *
#1143000
b100110 "
b100110 /
b11011001 !
b11011001 .
b100110 '
b100110 -
b10011101 &
b10011101 ,
b1100010 %
b1100010 +
#1144000
b1100011 )
b100110 #
b11011001 $
b1000 *
#1154000
b110110 "
b110110 /
b11001001 !
b11001001 .
b110110 '
b110110 -
b10011100 &
b10011100 ,
b1100011 %
b1100011 +
#1155000
b1100100 )
b110110 #
b11001001 $
b1000 *
#1165000
b1000110 "
b1000110 /
b10111001 !
b10111001 .
b1000110 '
b1000110 -
b10011011 &
b10011011 ,
b1100100 %
b1100100 +
#1166000
b1100101 )
b1000110 #
b10111001 $
b1000 *
#1176000
b1010110 "
b1010110 /
b10101001 !
b10101001 .
b1010110 '
b1010110 -
b10011010 &
b10011010 ,
b1100101 %
b1100101 +
#1177000
b1100110 )
b1010110 #
b10101001 $
b1000 *
#1187000
b1100110 "
b1100110 /
b10011001 !
b10011001 .
b1100110 '
b1100110 -
b10011001 &
b10011001 ,
b1100110 %
b1100110 +
#1188000
b1100111 )
b1100110 #
b10011001 $
b1000 *
#1198000
b1110110 "
b1110110 /
b10001001 !
b10001001 .
b1110110 '
b1110110 -
b10011000 &
b10011000 ,
b1100111 %
b1100111 +
#1199000
b1101000 )
b1110110 #
b10001001 $
b1000 *
#1209000
b10000110 "
b10000110 /
b1111001 !
b1111001 .
b10000110 '
b10000110 -
b10010111 &
b10010111 ,
b1101000 %
b1101000 +
#1210000
b1101001 )
b10000110 #
b1111001 $
b1000 *
#1220000
b10010110 "
b10010110 /
b1101001 !
b1101001 .
b10010110 '
b10010110 -
b10010110 &
b10010110 ,
b1101001 %
b1101001 +
#1221000
b1101010 )
b10010110 #
b1101001 $
b1000 *
#1231000
b10100110 "
b10100110 /
b1011001 !
b1011001 .
b10100110 '
b10100110 -
b10010101 &
b10010101 ,
b1101010 %
b1101010 +
#1232000
b1101011 )
b10100110 #
b1011001 $
b1000 *
#1242000
b10110110 "
b10110110 /
b1001001 !
b1001001 .
b10110110 '
b10110110 -
b10010100 &
b10010100 ,
b1101011 %
b1101011 +
#1243000
b1101100 )
b10110110 #
b1001001 $
b1000 *
#1253000
b11000110 "
b11000110 /
b111001 !
b111001 .
b11000110 '
b11000110 -
b10010011 &
b10010011 ,
b1101100 %
b1101100 +
#1254000
b1101101 )
b11000110 #
b111001 $
b1000 *
#1264000
b11010110 "
b11010110 /
b101001 !
b101001 .
b11010110 '
b11010110 -
b10010010 &
b10010010 ,
b1101101 %
b1101101 +
#1265000
b1101110 )
b11010110 #
b101001 $
b1000 *
#1275000
b11100110 "
b11100110 /
b11001 !
b11001 .
b11100110 '
b11100110 -
b10010001 &
b10010001 ,
b1101110 %
b1101110 +
#1276000
b1101111 )
b11100110 #
b11001 $
b1000 *
#1286000
b11110110 "
b11110110 /
b1001 !
b1001 .
b11110110 '
b11110110 -
b10010000 &
b10010000 ,
b1101111 %
b1101111 +
#1287000
b1110000 )
b11110110 #
b1001 $
b1000 *
#1297000
b111 "
b111 /
b11111000 !
b11111000 .
b111 '
b111 -
b10001111 &
b10001111 ,
b1110000 %
b1110000 +
#1298000
b1110001 )
b111 #
b11111000 $
b1000 *
#1308000
b10111 "
b10111 /
b11101000 !
b11101000 .
b10111 '
b10111 -
b10001110 &
b10001110 ,
b1110001 %
b1110001 +
#1309000
b1110010 )
b10111 #
b11101000 $
b1000 *
#1319000
b100111 "
b100111 /
b11011000 !
b11011000 .
b100111 '
b100111 -
b10001101 &
b10001101 ,
b1110010 %
b1110010 +
#1320000
b1110011 )
b100111 #
b11011000 $
b1000 *
#1330000
b110111 "
b110111 /
b11001000 !
b11001000 .
b110111 '
b110111 -
b10001100 &
b10001100 ,
b1110011 %
b1110011 +
#1331000
b1110100 )
b110111 #
b11001000 $
b1000 *
#1341000
b1000111 "
b1000111 /
b10111000 !
b10111000 .
b1000111 '
b1000111 -
b10001011 &
b10001011 ,
b1110100 %
b1110100 +
#1342000
b1110101 )
b1000111 #
b10111000 $
b1000 *
#1352000
b1010111 "
b1010111 /
b10101000 !
b10101000 .
b1010111 '
b1010111 -
b10001010 &
b10001010 ,
b1110101 %
b1110101 +
#1353000
b1110110 )
b1010111 #
b10101000 $
b1000 *
#1363000
b1100111 "
b1100111 /
b10011000 !
b10011000 .
b1100111 '
b1100111 -
b10001001 &
b10001001 ,
b1110110 %
b1110110 +
#1364000
b1110111 )
b1100111 #
b10011000 $
b1000 *
#1374000
b1110111 "
b1110111 /
b10001000 !
b10001000 .
b1110111 '
b1110111 -
b10001000 &
b10001000 ,
b1110111 %
b1110111 +
#1375000
b1111000 )
b1110111 #
b10001000 $
b1000 *
#1385000
b10000111 "
b10000111 /
b1111000 !
b1111000 .
b10000111 '
b10000111 -
b10000111 &
b10000111 ,
b1111000 %
b1111000 +
#1386000
b1111001 )
b10000111 #
b1111000 $
b1000 *
#1396000
b10010111 "
b10010111 /
b1101000 !
b1101000 .
b10010111 '
b10010111 -
b10000110 &
b10000110 ,
b1111001 %
b1111001 +
#1397000
b1111010 )
b10010111 #
b1101000 $
b1000 *
#1407000
b10100111 "
b10100111 /
b1011000 !
b1011000 .
b10100111 '
b10100111 -
b10000101 &
b10000101 ,
b1111010 %
b1111010 +
#1408000
b1111011 )
b10100111 #
b1011000 $
b1000 *
#1418000
b10110111 "
b10110111 /
b1001000 !
b1001000 .
b10110111 '
b10110111 -
b10000100 &
b10000100 ,
b1111011 %
b1111011 +
#1419000
b1111100 )
b10110111 #
b1001000 $
b1000 *
#1429000
b11000111 "
b11000111 /
b111000 !
b111000 .
b11000111 '
b11000111 -
b10000011 &
b10000011 ,
b1111100 %
b1111100 +
#1430000
b1111101 )
b11000111 #
b111000 $
b1000 *
#1440000
b11010111 "
b11010111 /
b101000 !
b101000 .
b11010111 '
b11010111 -
b10000010 &
b10000010 ,
b1111101 %
b1111101 +
#1441000
b1111110 )
b11010111 #
b101000 $
b1000 *
#1451000
b11100111 "
b11100111 /
b11000 !
b11000 .
b11100111 '
b11100111 -
b10000001 &
b10000001 ,
b1111110 %
b1111110 +
#1452000
b1111111 )
b11100111 #
b11000 $
b1000 *
#1462000
b11110111 "
b11110111 /
b1000 !
b1000 .
b11110111 '
b11110111 -
b10000000 &
b10000000 ,
b1111111 %
b1111111 +
#1463000
b10000000 )
b11110111 #
b1000 $
b1000 *
#1473000
b1000 "
b1000 /
b11110111 !
b11110111 .
b1000 '
b1000 -
b1111111 &
b1111111 ,
b10000000 %
b10000000 +
#1474000
b10000001 )
b1000 #
b11110111 $
b1000 *
#1484000
b11000 "
b11000 /
b11100111 !
b11100111 .
b11000 '
b11000 -
b1111110 &
b1111110 ,
b10000001 %
b10000001 +
#1485000
b10000010 )
b11000 #
b11100111 $
b1000 *
#1495000
b101000 "
b101000 /
b11010111 !
b11010111 .
b101000 '
b101000 -
b1111101 &
b1111101 ,
b10000010 %
b10000010 +
#1496000
b10000011 )
b101000 #
b11010111 $
b1000 *
#1506000
b111000 "
b111000 /
b11000111 !
b11000111 .
b111000 '
b111000 -
b1111100 &
b1111100 ,
b10000011 %
b10000011 +
#1507000
b10000100 )
b111000 #
b11000111 $
b1000 *
#1517000
b1001000 "
b1001000 /
b10110111 !
b10110111 .
b1001000 '
b1001000 -
b1111011 &
b1111011 ,
b10000100 %
b10000100 +
#1518000
b10000101 )
b1001000 #
b10110111 $
b1000 *
#1528000
b1011000 "
b1011000 /
b10100111 !
b10100111 .
b1011000 '
b1011000 -
b1111010 &
b1111010 ,
b10000101 %
b10000101 +
#1529000
b10000110 )
b1011000 #
b10100111 $
b1000 *
